<svg xmlns="http://www.w3.org/2000/svg" width="107" height="62" viewBox="0 0 107 62">
  <g id="logo1" transform="translate(-48 -31)">
    <g id="duck_2_" data-name="duck (2)" transform="translate(48 38.822)">
      <path id="Path_384" data-name="Path 384" d="M249.324,240.992A7.324,7.324,0,1,1,242,248.316,7.333,7.333,0,0,1,249.324,240.992Zm0,11.719a4.395,4.395,0,1,0-4.395-4.395A4.4,4.4,0,0,0,249.324,252.711Zm0,0" transform="translate(-230.281 -217.458)" fill="#f2331e"/>
      <path id="Path_385" data-name="Path 385" d="M303.465,300.992A1.465,1.465,0,1,1,302,302.457,1.466,1.466,0,0,1,303.465,300.992Zm0,0" transform="translate(-284.422 -271.598)" fill="#fff"/>
      <path id="Path_386" data-name="Path 386" d="M93.369,17.674a1.464,1.464,0,0,1,1.465,1.465,10.192,10.192,0,0,0,1.39,5.161A16.088,16.088,0,0,1,121.2,18.452a17.788,17.788,0,0,0-2.173-7.9,7.185,7.185,0,0,1-.757-3.229A7.324,7.324,0,1,1,132.411,10a28.286,28.286,0,0,0-2.42,10.241v7.69A19.007,19.007,0,0,1,112.412,46.9v1.632A1.384,1.384,0,0,1,111.045,50a1.551,1.551,0,0,1-1.562-1.465V46.889c-9.768-.776-17.578-9.412-17.578-19.7V19.139a1.464,1.464,0,0,1,1.465-1.465ZM125.6,8.787a1.465,1.465,0,1,0-1.465-1.465A1.465,1.465,0,0,0,125.6,8.787ZM110.947,41.111a10.254,10.254,0,1,0-10.254-10.254A10.266,10.266,0,0,0,110.947,41.111Zm0,0" transform="translate(-91.904 0.001)" fill="#fff"/>
      <path id="Path_387" data-name="Path 387" d="M.29,38.143A10.123,10.123,0,0,0,0,29.992H5.6a1.464,1.464,0,0,1,1.465,1.465A7.484,7.484,0,0,1,.069,38.728c.076-.194.145-.393.22-.585Zm0,0" transform="translate(42.939 -27.063)" fill="#f2331e"/>
    </g>
    <text id="GA" transform="translate(108 73)" fill="#fff" stroke="rgba(0,0,0,0)" stroke-width="1" font-size="45" font-family="AeroMaticsStencil-Bold, Aero Matics Stencil" font-weight="700"><tspan x="0" y="0">GA</tspan></text>
    <text id="SHOW" transform="translate(109 89)" fill="#fff" stroke="rgba(0,0,0,0)" stroke-width="1" font-size="13" font-family="Montserrat-Regular, Montserrat"><tspan x="0" y="0">SHOW</tspan></text>
  </g>
</svg>
