<svg xmlns="http://www.w3.org/2000/svg" width="69.682" height="34.904" viewBox="0 0 69.682 34.904">
  <g id="ga_key" transform="translate(-48 -36.763)">
    <g id="duck_2_" data-name="duck (2)" transform="translate(48 36.763)">
      <path id="Path_384" data-name="Path 384" d="M247.113,240.992A5.113,5.113,0,1,1,242,246.105,5.119,5.119,0,0,1,247.113,240.992Zm0,8.181a3.068,3.068,0,1,0-3.068-3.068A3.071,3.071,0,0,0,247.113,249.173Zm0,0" transform="translate(-233.819 -224.562)" fill="#bf0101"/>
      <path id="Path_385" data-name="Path 385" d="M303.023,300.992A1.023,1.023,0,1,1,302,302.015,1.023,1.023,0,0,1,303.023,300.992Zm0,0" transform="translate(-289.728 -280.472)" fill="#2a2a2a"/>
      <path id="Path_386" data-name="Path 386" d="M92.927,12.338a1.022,1.022,0,0,1,1.023,1.023,7.115,7.115,0,0,0,.971,3.6,11.232,11.232,0,0,1,17.437-4.083,12.418,12.418,0,0,0-1.517-5.516,5.016,5.016,0,0,1-.528-2.254,5.113,5.113,0,1,1,9.871,1.867,19.747,19.747,0,0,0-1.69,7.15V19.5a13.269,13.269,0,0,1-12.272,13.246v1.139a.966.966,0,0,1-.954,1.023,1.083,1.083,0,0,1-1.091-1.023V32.733A13.689,13.689,0,0,1,91.9,18.982V13.36a1.022,1.022,0,0,1,1.023-1.023Zm22.5-6.2A1.023,1.023,0,1,0,114.4,5.111,1.023,1.023,0,0,0,115.426,6.134ZM105.2,28.7a7.158,7.158,0,1,0-7.158-7.158A7.167,7.167,0,0,0,105.2,28.7Zm0,0" transform="translate(-91.904 0.001)" fill="#2a2a2a"/>
      <path id="Path_387" data-name="Path 387" d="M.2,35.682a7.067,7.067,0,0,0-.2-5.69H3.907A1.022,1.022,0,0,1,4.93,31.015,5.224,5.224,0,0,1,.048,36.091c.053-.135.1-.274.154-.408Zm0,0" transform="translate(29.976 -27.947)" fill="#bf0101"/>
    </g>
    <path id="Path_4234" data-name="Path 4234" d="M8.7-21.343h5.434l-.151,3.633H8.7ZM8.764-3.481H11.05V-8.931H8.779l-.167-3.33h6.433V0L8.764.106ZM7.432.151H6.69q-5.479,0-5.479-4.692V-16.65q0-4.692,5.479-4.692h.742v3.633q-2.074.061-2.074,1.362v11.5q0,1.3,2.074,1.362ZM24.264-14.123l1.544-7.22H26.9L31.666.151H27.519L26.308-4.39H21.842l.772-3.33H25.7Zm.56-7.22L19.784.151H15.636l4.919-21.494Z" transform="translate(84.887 60)" fill="#2a2a2a" stroke="rgba(0,0,0,0)" stroke-width="1"/>
    <path id="Path_4235" data-name="Path 4235" d="M3.042-2.475,2.2-1.593V0H.747V-6.3H2.2v2.943L4.986-6.3h1.62L4-3.492,6.759,0h-1.7ZM17.964-1.17V0H13.086V-6.3h4.761v1.17H14.535v1.368H17.46v1.134H14.535V-1.17Zm9.8-1.062V0H26.307V-2.25L23.868-6.3h1.548L27.1-3.5l1.683-2.8h1.431Z" transform="translate(86.585 70.717)" fill="#bf0101" stroke="rgba(0,0,0,0)" stroke-width="1"/>
  </g>
</svg>
