<svg id="cancel" xmlns="http://www.w3.org/2000/svg" width="25" height="25" viewBox="0 0 25 25">
  <g id="Group_936" data-name="Group 936">
    <path id="Path_3881" data-name="Path 3881" d="M21.338,3.662A12.5,12.5,0,1,0,3.662,21.338,12.5,12.5,0,1,0,21.338,3.662Zm-1,16.672A11.078,11.078,0,0,1,4.666,4.666,11.078,11.078,0,1,1,20.334,20.334Z" fill="#dfdfdf"/>
    <path id="Path_3882" data-name="Path 3882" d="M140.151,129.134a.708.708,0,0,0-1,0l-4.5,4.5-4.5-4.5a.711.711,0,0,0-1,1l4.5,4.5-4.5,4.5a.713.713,0,0,0,.5,1.215.693.693,0,0,0,.5-.21l4.5-4.5,4.5,4.5a.715.715,0,0,0,.5.21.684.684,0,0,0,.5-.21.708.708,0,0,0,0-1l-4.493-4.5,4.5-4.5A.708.708,0,0,0,140.151,129.134Z" transform="translate(-122.142 -122.142)" fill="#dfdfdf"/>
  </g>
</svg>
